[
  {
    "arguments": [
      "/usr/bin/avr-gcc",
      "-Wall",
      "-Wextra",
      "-Werror",
      "-Wshadow",
      "-mmcu=atmega328p",
      "-D",
      "F_CPU=16000000L",
      "-I",
      "src/includes",
      "-I",
      "src/app/encoder",
      "-I",
      "src/app/gpios",
      "-I",
      "src/app/heater",
      "-I",
      "src/app/init",
      "-I",
      "src/app/ring_buffer",
      "-I",
      "src/app/timer",
      "-I",
      "src/drivers/adc",
      "-I",
      "src/drivers/i2c",
      "-I",
      "src/drivers/lcd",
      "-I",
      "src/drivers/pcf8574_io_expander",
      "-I",
      "src/drivers/uart",
      "-I",
      "src/drivers/pid",
      "-O3",
      "-c",
      "-o",
      "build/obj/./src/app/ring_buffer/ring_buffer.o",
      "src/app/ring_buffer/ring_buffer.c"
    ],
    "directory": "/home/ary/soldering-station-t245/firmware",
    "file": "/home/ary/soldering-station-t245/firmware/src/app/ring_buffer/ring_buffer.c",
    "output": "/home/ary/soldering-station-t245/firmware/build/obj/src/app/ring_buffer/ring_buffer.o"
  },
  {
    "arguments": [
      "/usr/bin/avr-gcc",
      "-Wall",
      "-Wextra",
      "-Werror",
      "-Wshadow",
      "-mmcu=atmega328p",
      "-D",
      "F_CPU=16000000L",
      "-I",
      "src/includes",
      "-I",
      "src/app/encoder",
      "-I",
      "src/app/gpios",
      "-I",
      "src/app/heater",
      "-I",
      "src/app/init",
      "-I",
      "src/app/ring_buffer",
      "-I",
      "src/app/timer",
      "-I",
      "src/drivers/adc",
      "-I",
      "src/drivers/i2c",
      "-I",
      "src/drivers/lcd",
      "-I",
      "src/drivers/pcf8574_io_expander",
      "-I",
      "src/drivers/uart",
      "-I",
      "src/drivers/pid",
      "-O3",
      "-c",
      "-o",
      "build/obj/./src/app/init/init.o",
      "src/app/init/init.c"
    ],
    "directory": "/home/ary/soldering-station-t245/firmware",
    "file": "/home/ary/soldering-station-t245/firmware/src/app/init/init.c",
    "output": "/home/ary/soldering-station-t245/firmware/build/obj/src/app/init/init.o"
  },
  {
    "arguments": [
      "/usr/bin/avr-gcc",
      "-Wall",
      "-Wextra",
      "-Werror",
      "-Wshadow",
      "-mmcu=atmega328p",
      "-D",
      "F_CPU=16000000L",
      "-I",
      "src/includes",
      "-I",
      "src/app/encoder",
      "-I",
      "src/app/gpios",
      "-I",
      "src/app/heater",
      "-I",
      "src/app/init",
      "-I",
      "src/app/ring_buffer",
      "-I",
      "src/app/timer",
      "-I",
      "src/drivers/adc",
      "-I",
      "src/drivers/i2c",
      "-I",
      "src/drivers/lcd",
      "-I",
      "src/drivers/pcf8574_io_expander",
      "-I",
      "src/drivers/uart",
      "-I",
      "src/drivers/pid",
      "-O3",
      "-c",
      "-o",
      "build/obj/./src/app/encoder/encoder.o",
      "src/app/encoder/encoder.c"
    ],
    "directory": "/home/ary/soldering-station-t245/firmware",
    "file": "/home/ary/soldering-station-t245/firmware/src/app/encoder/encoder.c",
    "output": "/home/ary/soldering-station-t245/firmware/build/obj/src/app/encoder/encoder.o"
  },
  {
    "arguments": [
      "/usr/bin/avr-gcc",
      "-Wall",
      "-Wextra",
      "-Werror",
      "-Wshadow",
      "-mmcu=atmega328p",
      "-D",
      "F_CPU=16000000L",
      "-I",
      "src/includes",
      "-I",
      "src/app/encoder",
      "-I",
      "src/app/gpios",
      "-I",
      "src/app/heater",
      "-I",
      "src/app/init",
      "-I",
      "src/app/ring_buffer",
      "-I",
      "src/app/timer",
      "-I",
      "src/drivers/adc",
      "-I",
      "src/drivers/i2c",
      "-I",
      "src/drivers/lcd",
      "-I",
      "src/drivers/pcf8574_io_expander",
      "-I",
      "src/drivers/uart",
      "-I",
      "src/drivers/pid",
      "-O3",
      "-c",
      "-o",
      "build/obj/./src/app/main.o",
      "src/app/main.c"
    ],
    "directory": "/home/ary/soldering-station-t245/firmware",
    "file": "/home/ary/soldering-station-t245/firmware/src/app/main.c",
    "output": "/home/ary/soldering-station-t245/firmware/build/obj/src/app/main.o"
  },
  {
    "arguments": [
      "/usr/bin/avr-gcc",
      "-Wall",
      "-Wextra",
      "-Werror",
      "-Wshadow",
      "-mmcu=atmega328p",
      "-D",
      "F_CPU=16000000L",
      "-I",
      "src/includes",
      "-I",
      "src/app/encoder",
      "-I",
      "src/app/gpios",
      "-I",
      "src/app/heater",
      "-I",
      "src/app/init",
      "-I",
      "src/app/ring_buffer",
      "-I",
      "src/app/timer",
      "-I",
      "src/drivers/adc",
      "-I",
      "src/drivers/i2c",
      "-I",
      "src/drivers/lcd",
      "-I",
      "src/drivers/pcf8574_io_expander",
      "-I",
      "src/drivers/uart",
      "-I",
      "src/drivers/pid",
      "-O3",
      "-c",
      "-o",
      "build/obj/./src/app/timer/timer.o",
      "src/app/timer/timer.c"
    ],
    "directory": "/home/ary/soldering-station-t245/firmware",
    "file": "/home/ary/soldering-station-t245/firmware/src/app/timer/timer.c",
    "output": "/home/ary/soldering-station-t245/firmware/build/obj/src/app/timer/timer.o"
  },
  {
    "arguments": [
      "/usr/bin/avr-gcc",
      "-Wall",
      "-Wextra",
      "-Werror",
      "-Wshadow",
      "-mmcu=atmega328p",
      "-D",
      "F_CPU=16000000L",
      "-I",
      "src/includes",
      "-I",
      "src/app/encoder",
      "-I",
      "src/app/gpios",
      "-I",
      "src/app/heater",
      "-I",
      "src/app/init",
      "-I",
      "src/app/ring_buffer",
      "-I",
      "src/app/timer",
      "-I",
      "src/drivers/adc",
      "-I",
      "src/drivers/i2c",
      "-I",
      "src/drivers/lcd",
      "-I",
      "src/drivers/pcf8574_io_expander",
      "-I",
      "src/drivers/uart",
      "-I",
      "src/drivers/pid",
      "-O3",
      "-c",
      "-o",
      "build/obj/./src/app/app.o",
      "src/app/app.c"
    ],
    "directory": "/home/ary/soldering-station-t245/firmware",
    "file": "/home/ary/soldering-station-t245/firmware/src/app/app.c",
    "output": "/home/ary/soldering-station-t245/firmware/build/obj/src/app/app.o"
  },
  {
    "arguments": [
      "/usr/bin/avr-gcc",
      "-Wall",
      "-Wextra",
      "-Werror",
      "-Wshadow",
      "-mmcu=atmega328p",
      "-D",
      "F_CPU=16000000L",
      "-I",
      "src/includes",
      "-I",
      "src/app/encoder",
      "-I",
      "src/app/gpios",
      "-I",
      "src/app/heater",
      "-I",
      "src/app/init",
      "-I",
      "src/app/ring_buffer",
      "-I",
      "src/app/timer",
      "-I",
      "src/drivers/adc",
      "-I",
      "src/drivers/i2c",
      "-I",
      "src/drivers/lcd",
      "-I",
      "src/drivers/pcf8574_io_expander",
      "-I",
      "src/drivers/uart",
      "-I",
      "src/drivers/pid",
      "-O3",
      "-c",
      "-o",
      "build/obj/./src/app/gpios/gpios.o",
      "src/app/gpios/gpios.c"
    ],
    "directory": "/home/ary/soldering-station-t245/firmware",
    "file": "/home/ary/soldering-station-t245/firmware/src/app/gpios/gpios.c",
    "output": "/home/ary/soldering-station-t245/firmware/build/obj/src/app/gpios/gpios.o"
  },
  {
    "arguments": [
      "/usr/bin/avr-gcc",
      "-Wall",
      "-Wextra",
      "-Werror",
      "-Wshadow",
      "-mmcu=atmega328p",
      "-D",
      "F_CPU=16000000L",
      "-I",
      "src/includes",
      "-I",
      "src/app/encoder",
      "-I",
      "src/app/gpios",
      "-I",
      "src/app/heater",
      "-I",
      "src/app/init",
      "-I",
      "src/app/ring_buffer",
      "-I",
      "src/app/timer",
      "-I",
      "src/drivers/adc",
      "-I",
      "src/drivers/i2c",
      "-I",
      "src/drivers/lcd",
      "-I",
      "src/drivers/pcf8574_io_expander",
      "-I",
      "src/drivers/uart",
      "-I",
      "src/drivers/pid",
      "-O3",
      "-c",
      "-o",
      "build/obj/./src/app/heater/heater.o",
      "src/app/heater/heater.c"
    ],
    "directory": "/home/ary/soldering-station-t245/firmware",
    "file": "/home/ary/soldering-station-t245/firmware/src/app/heater/heater.c",
    "output": "/home/ary/soldering-station-t245/firmware/build/obj/src/app/heater/heater.o"
  },
  {
    "arguments": [
      "/usr/bin/avr-gcc",
      "-Wall",
      "-Wextra",
      "-Werror",
      "-Wshadow",
      "-mmcu=atmega328p",
      "-D",
      "F_CPU=16000000L",
      "-I",
      "src/includes",
      "-I",
      "src/app/encoder",
      "-I",
      "src/app/gpios",
      "-I",
      "src/app/heater",
      "-I",
      "src/app/init",
      "-I",
      "src/app/ring_buffer",
      "-I",
      "src/app/timer",
      "-I",
      "src/drivers/adc",
      "-I",
      "src/drivers/i2c",
      "-I",
      "src/drivers/lcd",
      "-I",
      "src/drivers/pcf8574_io_expander",
      "-I",
      "src/drivers/uart",
      "-I",
      "src/drivers/pid",
      "-O3",
      "-c",
      "-o",
      "build/obj/./src/drivers/pcf8574_io_expander/pcf8574.o",
      "src/drivers/pcf8574_io_expander/pcf8574.c"
    ],
    "directory": "/home/ary/soldering-station-t245/firmware",
    "file": "/home/ary/soldering-station-t245/firmware/src/drivers/pcf8574_io_expander/pcf8574.c",
    "output": "/home/ary/soldering-station-t245/firmware/build/obj/src/drivers/pcf8574_io_expander/pcf8574.o"
  },
  {
    "arguments": [
      "/usr/bin/avr-gcc",
      "-Wall",
      "-Wextra",
      "-Werror",
      "-Wshadow",
      "-mmcu=atmega328p",
      "-D",
      "F_CPU=16000000L",
      "-I",
      "src/includes",
      "-I",
      "src/app/encoder",
      "-I",
      "src/app/gpios",
      "-I",
      "src/app/heater",
      "-I",
      "src/app/init",
      "-I",
      "src/app/ring_buffer",
      "-I",
      "src/app/timer",
      "-I",
      "src/drivers/adc",
      "-I",
      "src/drivers/i2c",
      "-I",
      "src/drivers/lcd",
      "-I",
      "src/drivers/pcf8574_io_expander",
      "-I",
      "src/drivers/uart",
      "-I",
      "src/drivers/pid",
      "-O3",
      "-c",
      "-o",
      "build/obj/./src/drivers/uart/uart.o",
      "src/drivers/uart/uart.c"
    ],
    "directory": "/home/ary/soldering-station-t245/firmware",
    "file": "/home/ary/soldering-station-t245/firmware/src/drivers/uart/uart.c",
    "output": "/home/ary/soldering-station-t245/firmware/build/obj/src/drivers/uart/uart.o"
  },
  {
    "arguments": [
      "/usr/bin/avr-gcc",
      "-Wall",
      "-Wextra",
      "-Werror",
      "-Wshadow",
      "-mmcu=atmega328p",
      "-D",
      "F_CPU=16000000L",
      "-I",
      "src/includes",
      "-I",
      "src/app/encoder",
      "-I",
      "src/app/gpios",
      "-I",
      "src/app/heater",
      "-I",
      "src/app/init",
      "-I",
      "src/app/ring_buffer",
      "-I",
      "src/app/timer",
      "-I",
      "src/drivers/adc",
      "-I",
      "src/drivers/i2c",
      "-I",
      "src/drivers/lcd",
      "-I",
      "src/drivers/pcf8574_io_expander",
      "-I",
      "src/drivers/uart",
      "-I",
      "src/drivers/pid",
      "-O3",
      "-c",
      "-o",
      "build/obj/./src/drivers/pid/pid.o",
      "src/drivers/pid/pid.c"
    ],
    "directory": "/home/ary/soldering-station-t245/firmware",
    "file": "/home/ary/soldering-station-t245/firmware/src/drivers/pid/pid.c",
    "output": "/home/ary/soldering-station-t245/firmware/build/obj/src/drivers/pid/pid.o"
  },
  {
    "arguments": [
      "/usr/bin/avr-gcc",
      "-Wall",
      "-Wextra",
      "-Werror",
      "-Wshadow",
      "-mmcu=atmega328p",
      "-D",
      "F_CPU=16000000L",
      "-I",
      "src/includes",
      "-I",
      "src/app/encoder",
      "-I",
      "src/app/gpios",
      "-I",
      "src/app/heater",
      "-I",
      "src/app/init",
      "-I",
      "src/app/ring_buffer",
      "-I",
      "src/app/timer",
      "-I",
      "src/drivers/adc",
      "-I",
      "src/drivers/i2c",
      "-I",
      "src/drivers/lcd",
      "-I",
      "src/drivers/pcf8574_io_expander",
      "-I",
      "src/drivers/uart",
      "-I",
      "src/drivers/pid",
      "-O3",
      "-c",
      "-o",
      "build/obj/./src/drivers/i2c/i2c.o",
      "src/drivers/i2c/i2c.c"
    ],
    "directory": "/home/ary/soldering-station-t245/firmware",
    "file": "/home/ary/soldering-station-t245/firmware/src/drivers/i2c/i2c.c",
    "output": "/home/ary/soldering-station-t245/firmware/build/obj/src/drivers/i2c/i2c.o"
  },
  {
    "arguments": [
      "/usr/bin/avr-gcc",
      "-Wall",
      "-Wextra",
      "-Werror",
      "-Wshadow",
      "-mmcu=atmega328p",
      "-D",
      "F_CPU=16000000L",
      "-I",
      "src/includes",
      "-I",
      "src/app/encoder",
      "-I",
      "src/app/gpios",
      "-I",
      "src/app/heater",
      "-I",
      "src/app/init",
      "-I",
      "src/app/ring_buffer",
      "-I",
      "src/app/timer",
      "-I",
      "src/drivers/adc",
      "-I",
      "src/drivers/i2c",
      "-I",
      "src/drivers/lcd",
      "-I",
      "src/drivers/pcf8574_io_expander",
      "-I",
      "src/drivers/uart",
      "-I",
      "src/drivers/pid",
      "-O3",
      "-c",
      "-o",
      "build/obj/./src/drivers/adc/adc.o",
      "src/drivers/adc/adc.c"
    ],
    "directory": "/home/ary/soldering-station-t245/firmware",
    "file": "/home/ary/soldering-station-t245/firmware/src/drivers/adc/adc.c",
    "output": "/home/ary/soldering-station-t245/firmware/build/obj/src/drivers/adc/adc.o"
  },
  {
    "arguments": [
      "/usr/bin/avr-gcc",
      "-Wall",
      "-Wextra",
      "-Werror",
      "-Wshadow",
      "-mmcu=atmega328p",
      "-D",
      "F_CPU=16000000L",
      "-I",
      "src/includes",
      "-I",
      "src/app/encoder",
      "-I",
      "src/app/gpios",
      "-I",
      "src/app/heater",
      "-I",
      "src/app/init",
      "-I",
      "src/app/ring_buffer",
      "-I",
      "src/app/timer",
      "-I",
      "src/drivers/adc",
      "-I",
      "src/drivers/i2c",
      "-I",
      "src/drivers/lcd",
      "-I",
      "src/drivers/pcf8574_io_expander",
      "-I",
      "src/drivers/uart",
      "-I",
      "src/drivers/pid",
      "-O3",
      "-c",
      "-o",
      "build/obj/./src/drivers/lcd/lcd.o",
      "src/drivers/lcd/lcd.c"
    ],
    "directory": "/home/ary/soldering-station-t245/firmware",
    "file": "/home/ary/soldering-station-t245/firmware/src/drivers/lcd/lcd.c",
    "output": "/home/ary/soldering-station-t245/firmware/build/obj/src/drivers/lcd/lcd.o"
  }
]
